L8 – ტექსტის დამუშავება, ნაწილი II
…
library(stringr)
library(tidytext)

books <- austen_books() %>%
  group_by(book) %>%
  mutate(chapter = cumsum(str_detect(text, regex("^chapter [\\divxlc]",
                                                 ignore_case = TRUE)))) %>%
  ungroup()

books

## # A tibble: 73,422 × 3
##    text                    book                chapter
##    <chr>                   <fct>                 <int>
##  1 "SENSE AND SENSIBILITY" Sense & Sensibility       0
##  2 ""                      Sense & Sensibility       0
##  3 "by Jane Austen"        Sense & Sensibility       0
##  4 ""                      Sense & Sensibility       0
##  5 "(1811)"                Sense & Sensibility       0
##  6 ""                      Sense & Sensibility       0
##  7 ""                      Sense & Sensibility       0
##  8 ""                      Sense & Sensibility       0
##  9 ""                      Sense & Sensibility       0
## 10 "CHAPTER 1"             Sense & Sensibility       1
## # … with 73,412 more rows

tidy_books <- books %>%
  unnest_tokens(word, text)

tidy_books

## # A tibble: 725,055 × 3
##    book                chapter word       
##    <fct>                 <int> <chr>      
##  1 Sense & Sensibility       0 sense      
##  2 Sense & Sensibility       0 and        
##  3 Sense & Sensibility       0 sensibility
##  4 Sense & Sensibility       0 by         
##  5 Sense & Sensibility       0 jane       
##  6 Sense & Sensibility       0 austen     
##  7 Sense & Sensibility       0 1811       
##  8 Sense & Sensibility       1 chapter    
##  9 Sense & Sensibility       1 1          
## 10 Sense & Sensibility       1 the        
## # … with 725,045 more rows

get_sentiments("bing") %>%
  filter(sentiment == "positive")

## # A tibble: 2,005 × 2
##    word        sentiment
##    <chr>       <chr>    
##  1 abound      positive 
##  2 abounds     positive 
##  3 abundance   positive 
##  4 abundant    positive 
##  5 accessable  positive 
##  6 accessible  positive 
##  7 acclaim     positive 
##  8 acclaimed   positive 
##  9 acclamation positive 
## 10 accolade    positive 
## # … with 1,995 more rows

tidy_books %>%
  filter(book == "Emma") %>%
  semi_join(get_sentiments("bing") %>% filter(sentiment == "positive")) %>%
  count(word, sort = TRUE)

## Joining, by = "word"

## # A tibble: 668 × 2
##    word         n
##    <chr>    <int>
##  1 well       401
##  2 good       359
##  3 great      264
##  4 like       200
##  5 better     173
##  6 enough     129
##  7 happy      125
##  8 love       117
##  9 pleasure   115
## 10 right       92
## # … with 658 more rows

library(tidyr)
bing <- get_sentiments("bing")

tidy_books %>%
  inner_join(bing)

## Joining, by = "word"

## # A tibble: 52,287 × 4
##    book                chapter word        sentiment
##    <fct>                 <int> <chr>       <chr>    
##  1 Sense & Sensibility       1 respectable positive 
##  2 Sense & Sensibility       1 good        positive 
##  3 Sense & Sensibility       1 advanced    positive 
##  4 Sense & Sensibility       1 death       negative 
##  5 Sense & Sensibility       1 great       positive 
##  6 Sense & Sensibility       1 loss        negative 
##  7 Sense & Sensibility       1 comfortably positive 
##  8 Sense & Sensibility       1 goodness    positive 
##  9 Sense & Sensibility       1 solid       positive 
## 10 Sense & Sensibility       1 comfort     positive 
## # … with 52,277 more rows
…
ხშირი სიტყვები – Stopwords

tidytext::stop_words

## # A tibble: 1,149 × 2
##    word        lexicon
##    <chr>       <chr>  
##  1 a           SMART  
##  2 a's         SMART  
##  3 able        SMART  
##  4 about       SMART  
##  5 above       SMART  
##  6 according   SMART  
##  7 accordingly SMART  
##  8 across      SMART  
##  9 actually    SMART  
## 10 after       SMART  
## # … with 1,139 more rows
…
