L11 – მოდელირება, ნაწილი III
…
პოტენციური წრფივი დამოკიდებულება ცვლადებს შორის.

sim1_extended <- sim1 %>% mutate(twice_x = 2 * x)
sim1_extended

## # A tibble: 30 × 3
##        x     y twice_x
##    <int> <dbl>   <dbl>
##  1     1  4.20       2
##  2     1  7.51       2
##  3     1  2.13       2
##  4     2  8.99       4
##  5     2 10.2        4
##  6     2 11.3        4
##  7     3  7.36       6
##  8     3 10.5        6
##  9     3 10.5        6
## 10     4 12.4        8
## # … with 20 more rows
…
